{
    "pagination": {
        "pageSize": 50,
        "currentPage": 1,
        "totalItems": 22820,
        "totalPages": 457
    },
    "resourceBaseUri": "http://reports.sem-o.com/documents",
    "items": [
        {
            "_id": "5b2bd28a522f3a3f9105106c",
            "Date": "2018-01-01",
            "PublishTime": "2018-06-21T16:04:05",
            "DPuG_ID": "BM-009",
            "ReportName": "Annual Load Forecast",
            "Group": [
                "Forecast Data"
            ],
            "Dynamic": false,
            "ResourceName": "PUB_AnnualLoadFcst_201806211604.xml",
            "DateRetention": "2018-01-01"
        },
        {
            "_id": "5b4d204b25083355005bc338",
            "PublishTime": "2018-02-28T10:02:29+00:00",
            "DPuG_ID": "BM-085",
            "ReportName": "Settlement Calendar",
            "Group": [
                "Settlement Data"
            ],
            "Dynamic": true,
            "ResourceName": "SC_PT_ALL_20180101_20180228_ALL_REPT_20180228T100229.XML",
            "DateRetention": {
                "$undefined": true
            }
        },
        {
            "_id": "5b8585862508331d716884be",
            "PublishTime": "2018-04-21T06:55:13+00:00",
            "DPuG_ID": "BM-085",
            "ReportName": "Settlement Calendar",
            "Group": [
                "Settlement Data"
            ],
            "Dynamic": true,
            "ResourceName": "SC_PT_ALL_20180101_20180421_ALL_REPT_20180421T065513.XML",
            "DateRetention": {
                "$undefined": true
            }
        },
        {
            "_id": "5b8585862508331d71689db3",
            "PublishTime": "2018-05-24T12:15:22+00:00",
            "DPuG_ID": "BM-085",
            "ReportName": "Settlement Calendar",
            "Group": [
                "Settlement Data"
            ],
            "Dynamic": true,
            "ResourceName": "SC_PT_ALL_20180401_20180524_ALL_REPT_20180524T121522.XML",
            "DateRetention": {
                "$undefined": true
            }
        },
        {
            "_id": "5baa07d2250833324c870a5c",
            "PublishTime": "2018-09-21T12:29:25+00:00",
            "DPuG_ID": "BM-085",
            "ReportName": "Settlement Calendar",
            "Group": [
                "Settlement Data"
            ],
            "Dynamic": true,
            "ResourceName": "SC_PT_ALL_20181001_20180921_ALL_REPT_20180921T122925.XML",
            "DateRetention": "2018-10-01"
        },
        {
            "_id": "5babb2c92508331f357cc3bf",
            "PublishTime": "2018-08-29T19:00:02+00:00",
            "DPuG_ID": "BM-085",
            "ReportName": "Settlement Calendar",
            "Group": [
                "Settlement Data"
            ],
            "Dynamic": true,
            "ResourceName": "SC_PT_ALL_20180829_20180829_ALL_REPT_20180829T190002.XML",
            "DateRetention": {
                "$undefined": true
            }
        },
        {
            "_id": "5bc704a12508334ea45d758f",
            "PublishTime": "2018-10-17T09:19:43+00:00",
            "DPuG_ID": "BM-085",
            "ReportName": "Settlement Calendar",
            "Group": [
                "Settlement Data"
            ],
            "Dynamic": true,
            "ResourceName": "SC_PT_ALL_20181016_20181017_ALL_REPT_20181017T091943.XML",
            "DateRetention": "2018-10-17"
        },
        {
            "_id": "5bd1da732508335ebd21e392",
            "Date": "2019-01-01",
            "PublishTime": "2018-10-25T14:23:50",
            "DPuG_ID": "BM-009",
            "ReportName": "Annual Load Forecast",
            "Group": [
                "Forecast Data"
            ],
            "Dynamic": false,
            "ResourceName": "PUB_AnnualLoadFcst_201810251423.xml",
            "DateRetention": "2019-01-01"
        },
        {
            "_id": "5bd7401625083353db6ae61c",
            "PublishTime": "2018-10-29T16:45:19+00:00",
            "DPuG_ID": "BM-085",
            "ReportName": "Settlement Calendar",
            "Group": [
                "Settlement Data"
            ],
            "Dynamic": true,
            "ResourceName": "SC_PT_ALL_20181001_20181029_ALL_REPT_20181029T164518.XML",
            "DateRetention": "2018-10-29"
        },
        {
            "_id": "5bd7401725083353db6afcdd",
            "PublishTime": "2018-10-29T16:55:36+00:00",
            "DPuG_ID": "BM-085",
            "ReportName": "Settlement Calendar",
            "Group": [
                "Settlement Data"
            ],
            "Dynamic": true,
            "ResourceName": "SC_PT_ALL_20181001_20181029_ALL_REPT_20181029T165536.XML",
            "DateRetention": "2018-10-29"
        },
        {
            "_id": "5bd9c37325083346f4084cde",
            "PublishTime": "2018-10-31T14:35:52+00:00",
            "DPuG_ID": "BM-085",
            "ReportName": "Settlement Calendar",
            "Group": [
                "Settlement Data"
            ],
            "Dynamic": true,
            "ResourceName": "SC_PT_ALL_20181001_20181031_ALL_REPT_20181031T143552.XML",
            "DateRetention": "2018-10-31"
        },
        {
            "_id": "5bf8391c250833460a3c10fe",
            "PublishTime": "2018-11-23T16:57:36+00:00",
            "DPuG_ID": "BM-085",
            "ReportName": "Settlement Calendar",
            "Group": [
                "Settlement Data"
            ],
            "Dynamic": true,
            "ResourceName": "SC_PT_ALL_20181001_20181123_ALL_REPT_20181123T165736.XML",
            "DateRetention": "2018-11-23"
        },
        {
            "_id": "5c0ea9a325083303a501bca4",
            "PublishTime": "2018-12-10T17:30:12+00:00",
            "DPuG_ID": "BM-085",
            "ReportName": "Settlement Calendar",
            "Group": [
                "Settlement Data"
            ],
            "Dynamic": true,
            "ResourceName": "SC_PT_ALL_20181210_20181210_ALL_REPT_20181210T173012.XML",
            "DateRetention": {
                "$undefined": true
            }
        },
        {
            "_id": "5c1168c225083372c70c6e9e",
            "PublishTime": "2018-12-12T19:28:09+00:00",
            "DPuG_ID": "BM-085",
            "ReportName": "Settlement Calendar",
            "Group": [
                "Settlement Data"
            ],
            "Dynamic": true,
            "ResourceName": "SC_PT_ALL_20181212_20181212_ALL_REPT_20181212T192808.XML",
            "DateRetention": {
                "$undefined": true
            }
        },
        {
            "_id": "5c1782512508332f5c1523f4",
            "PublishTime": "2018-12-17T10:39:01+00:00",
            "DPuG_ID": "BM-085",
            "ReportName": "Settlement Calendar",
            "Group": [
                "Settlement Data"
            ],
            "Dynamic": true,
            "ResourceName": "SC_PT_ALL_20181217_20181217_ALL_REPT_20181217T103901.XML",
            "DateRetention": {
                "$undefined": true
            }
        },
        {
            "_id": "5c20f0ef2508337b833d12e8",
            "PublishTime": "2018-12-24T14:18:42+00:00",
            "DPuG_ID": "BM-085",
            "ReportName": "Settlement Calendar",
            "Group": [
                "Settlement Data"
            ],
            "Dynamic": true,
            "ResourceName": "SC_PT_ALL_20181001_20181224_ALL_REPT_20181224T141842.XML",
            "DateRetention": {
                "$undefined": true
            }
        },
        {
            "_id": "5c37768f2508337cdb04a2f9",
            "PublishTime": "2019-01-10T16:16:03+00:00",
            "DPuG_ID": "BM-085",
            "ReportName": "Settlement Calendar",
            "Group": [
                "Settlement Data"
            ],
            "Dynamic": true,
            "ResourceName": "SC_PT_ALL_20190110_20190110_ALL_REPT_20190110T161603.XML",
            "DateRetention": {
                "$undefined": true
            }
        },
        {
            "_id": "5c41fb87250833685d545a84",
            "PublishTime": "2019-01-18T15:48:05+00:00",
            "DPuG_ID": "BM-085",
            "ReportName": "Settlement Calendar",
            "Group": [
                "Settlement Data"
            ],
            "Dynamic": true,
            "ResourceName": "SC_PT_ALL_20190118_20190118_ALL_REPT_20190118T154805.XML",
            "DateRetention": {
                "$undefined": true
            }
        },
        {
            "_id": "5c49d9ff9620d92c1110a75a",
            "PublishTime": "2019-01-24T15:11:55+00:00",
            "DPuG_ID": "BM-085",
            "ReportName": "Settlement Calendar",
            "Group": [
                "Settlement Data"
            ],
            "Dynamic": true,
            "ResourceName": "SC_PT_ALL_20190124_20190124_ALL_REPT_20190124T151154.XML",
            "DateRetention": {
                "$undefined": true
            }
        },
        {
            "_id": "5c4f38979620d966205ba173",
            "PublishTime": "2019-01-28T16:49:56+00:00",
            "DPuG_ID": "BM-085",
            "ReportName": "Settlement Calendar",
            "Group": [
                "Settlement Data"
            ],
            "Dynamic": true,
            "ResourceName": "SC_PT_ALL_20190128_20190128_ALL_REPT_20190128T164956.XML",
            "DateRetention": {
                "$undefined": true
            }
        },
        {
            "_id": "5c51c6809620d9190e6e6878",
            "PublishTime": "2019-01-30T15:18:29+00:00",
            "DPuG_ID": "BM-085",
            "ReportName": "Settlement Calendar",
            "Group": [
                "Settlement Data"
            ],
            "Dynamic": true,
            "ResourceName": "SC_PT_ALL_20190130_20190130_ALL_REPT_20190130T151829.XML",
            "DateRetention": {
                "$undefined": true
            }
        },
        {
            "_id": "5c53309d9620d9729c18cab6",
            "PublishTime": "2019-01-31T17:05:25+00:00",
            "DPuG_ID": "BM-085",
            "ReportName": "Settlement Calendar",
            "Group": [
                "Settlement Data"
            ],
            "Dynamic": true,
            "ResourceName": "SC_PT_ALL_20190131_20190131_ALL_REPT_20190131T170525.XML",
            "DateRetention": {
                "$undefined": true
            }
        },
        {
            "_id": "5c589d479620d9378642a026",
            "PublishTime": "2019-02-04T19:43:55+00:00",
            "DPuG_ID": "BM-085",
            "ReportName": "Settlement Calendar",
            "Group": [
                "Settlement Data"
            ],
            "Dynamic": true,
            "ResourceName": "SC_PT_ALL_20190204_20190204_ALL_REPT_20190204T194355.XML",
            "DateRetention": {
                "$undefined": true
            }
        },
        {
            "_id": "5c5dc7269620d9056e1f0642",
            "PublishTime": "2019-02-08T17:39:26+00:00",
            "DPuG_ID": "BM-085",
            "ReportName": "Settlement Calendar",
            "Group": [
                "Settlement Data"
            ],
            "Dynamic": true,
            "ResourceName": "SC_PT_ALL_20190208_20190208_ALL_REPT_20190208T173926.XML",
            "DateRetention": {
                "$undefined": true
            }
        },
        {
            "_id": "5c6438019620d932553c1508",
            "PublishTime": "2019-02-13T14:47:08+00:00",
            "DPuG_ID": "BM-085",
            "ReportName": "Settlement Calendar",
            "Group": [
                "Settlement Data"
            ],
            "Dynamic": true,
            "ResourceName": "SC_PT_ALL_20190213_20190213_ALL_REPT_20190213T144708.XML",
            "DateRetention": {
                "$undefined": true
            }
        },
        {
            "_id": "5c6ee01c9620d950db233bfc",
            "PublishTime": "2019-02-21T17:08:49+00:00",
            "DPuG_ID": "BM-085",
            "ReportName": "Settlement Calendar",
            "Group": [
                "Settlement Data"
            ],
            "Dynamic": true,
            "ResourceName": "SC_PT_ALL_20190221_20190221_ALL_REPT_20190221T170849.XML",
            "DateRetention": {
                "$undefined": true
            }
        },
        {
            "_id": "5c7813949620d96af465b1ae",
            "PublishTime": "2019-02-28T16:32:49+00:00",
            "DPuG_ID": "BM-085",
            "ReportName": "Settlement Calendar",
            "Group": [
                "Settlement Data"
            ],
            "Dynamic": true,
            "ResourceName": "SC_PT_ALL_20190228_20190228_ALL_REPT_20190228T163249.XML",
            "DateRetention": {
                "$undefined": true
            }
        },
        {
            "_id": "5c83b54f9620d911fa6f85c2",
            "PublishTime": "2019-03-09T12:15:03+00:00",
            "DPuG_ID": "BM-085",
            "ReportName": "Settlement Calendar",
            "Group": [
                "Settlement Data"
            ],
            "Dynamic": true,
            "ResourceName": "SC_PT_ALL_20181001_20190309_ALL_REPT_20190309T121503.XML",
            "DateRetention": {
                "$undefined": true
            }
        },
        {
            "_id": "5c8798419620d975da378454",
            "PublishTime": "2019-03-12T11:05:19+00:00",
            "DPuG_ID": "BM-085",
            "ReportName": "Settlement Calendar",
            "Group": [
                "Settlement Data"
            ],
            "Dynamic": true,
            "ResourceName": "SC_PT_ALL_20190311_20190312_ALL_REPT_20190312T110519.XML",
            "DateRetention": {
                "$undefined": true
            }
        },
        {
            "_id": "5c94c73f9620d9200923061a",
            "PublishTime": "2019-03-22T10:58:01+00:00",
            "DPuG_ID": "BM-085",
            "ReportName": "Settlement Calendar",
            "Group": [
                "Settlement Data"
            ],
            "Dynamic": true,
            "ResourceName": "SC_PT_ALL_20190322_20190322_ALL_REPT_20190322T105801.XML",
            "DateRetention": {
                "$undefined": true
            }
        },
        {
            "_id": "5caf680a9620d95e6e089bdd",
            "PublishTime": "2019-04-11T15:47:55+00:00",
            "DPuG_ID": "BM-085",
            "ReportName": "Settlement Calendar",
            "Group": [
                "Settlement Data"
            ],
            "Dynamic": true,
            "ResourceName": "SC_PT_ALL_20190411_20190411_ALL_REPT_20190411T154755.XML",
            "DateRetention": {
                "$undefined": true
            }
        },
        {
            "_id": "5cb480559620d95a25799b6e",
            "PublishTime": "2019-04-15T12:32:51+00:00",
            "DPuG_ID": "BM-085",
            "ReportName": "Settlement Calendar",
            "Group": [
                "Settlement Data"
            ],
            "Dynamic": true,
            "ResourceName": "SC_PT_ALL_20190415_20190415_ALL_REPT_20190415T123251.XML",
            "DateRetention": {
                "$undefined": true
            }
        },
        {
            "_id": "5cb5c7469620d910b4224dc9",
            "PublishTime": "2019-04-16T11:54:46+00:00",
            "DPuG_ID": "BM-085",
            "ReportName": "Settlement Calendar",
            "Group": [
                "Settlement Data"
            ],
            "Dynamic": true,
            "ResourceName": "SC_PT_ALL_20190416_20190416_ALL_REPT_20190416T115446.XML",
            "DateRetention": {
                "$undefined": true
            }
        },
        {
            "_id": "5d0cb5319620d91b4d703364",
            "PublishTime": "2019-06-21T10:17:46+00:00",
            "DPuG_ID": "BM-085",
            "ReportName": "Settlement Calendar",
            "Group": [
                "Settlement Data"
            ],
            "Dynamic": true,
            "ResourceName": "SC_PT_ALL_20190614_20190621_ALL_REPT_20190621T101746.XML",
            "DateRetention": {
                "$undefined": true
            }
        },
        {
            "_id": "5d1a0e609620d9601061b3b7",
            "PublishTime": "2019-07-01T13:23:35+00:00",
            "DPuG_ID": "BM-085",
            "ReportName": "Settlement Calendar",
            "Group": [
                "Settlement Data"
            ],
            "Dynamic": true,
            "ResourceName": "SC_PT_ALL_20190702_20190701_ALL_REPT_20190701T132335.XML",
            "DateRetention": {
                "$undefined": true
            }
        },
        {
            "_id": "5d4294fa9620d9583e3e326c",
            "Date": "2020-01-01",
            "PublishTime": "2019-08-01T07:00:04",
            "DPuG_ID": "BM-019",
            "ReportName": "Annual CLAF",
            "Group": [
                "Inputs, Commerical and Technical Offer Data"
            ],
            "Dynamic": false,
            "ResourceName": "PUB_AnnualCLAF_201908010700.xml",
            "DateRetention": "2020-01-01"
        },
        {
            "_id": "5d4294fa9620d9583e3e326d",
            "Date": "2020-01-01",
            "PublishTime": "2019-08-01T07:00:01",
            "DPuG_ID": "BM-009",
            "ReportName": "Annual Load Forecast",
            "Group": [
                "Forecast Data"
            ],
            "Dynamic": false,
            "ResourceName": "PUB_AnnualLoadFcst_201908010700.xml",
            "DateRetention": "2020-01-01"
        },
        {
            "_id": "5d42b11e9620d920300bc7da",
            "Date": "2019-09-01",
            "PublishTime": "2019-08-01T09:00:03",
            "DPuG_ID": "BM-011",
            "ReportName": "Monthly Load Forecast and Assumptions",
            "Group": [
                "Forecast Data"
            ],
            "Dynamic": false,
            "ResourceName": "PUB_MonthlyLoadFcst_201908010900.xml",
            "DateRetention": "2019-09-01"
        },
        {
            "_id": "5d42bf369620d9437f662123",
            "PublishTime": "2019-08-01T10:00:47+00:00",
            "DPuG_ID": "BM-085",
            "ReportName": "Settlement Calendar",
            "Group": [
                "Settlement Data"
            ],
            "Dynamic": true,
            "ResourceName": "SC_PT_ALL_20190801_20190801_ALL_REPT_20190801T100047.XML",
            "DateRetention": {
                "$undefined": true
            }
        },
        {
            "_id": "5d517b719620d90dfb67f0ac",
            "PublishTime": "2019-08-12T14:27:41+00:00",
            "DPuG_ID": "BM-085",
            "ReportName": "Settlement Calendar",
            "Group": [
                "Settlement Data"
            ],
            "Dynamic": true,
            "ResourceName": "SC_PT_ALL_20190812_20190812_ALL_REPT_20190812T142741.XML",
            "DateRetention": {
                "$undefined": true
            }
        },
        {
            "_id": "5d518d059620d9374817730e",
            "PublishTime": "2019-08-12T15:32:06+00:00",
            "DPuG_ID": "BM-085",
            "ReportName": "Settlement Calendar",
            "Group": [
                "Settlement Data"
            ],
            "Dynamic": true,
            "ResourceName": "SC_PT_ALL_20190812_20190812_ALL_REPT_20190812T153206.XML",
            "DateRetention": {
                "$undefined": true
            }
        },
        {
            "_id": "5d5545c09620d947d30705af",
            "PublishTime": "2019-08-15T11:14:38+00:00",
            "DPuG_ID": "BM-085",
            "ReportName": "Settlement Calendar",
            "Group": [
                "Settlement Data"
            ],
            "Dynamic": true,
            "ResourceName": "SC_PT_ALL_20180930_20190815_ALL_REPT_20190815T111438.XML",
            "DateRetention": {
                "$undefined": true
            }
        },
        {
            "_id": "5d6b8f9d9620d9252f6986b0",
            "Date": "2019-09-01",
            "PublishTime": "2019-09-01T09:00:01",
            "DPuG_ID": "BM-003",
            "ReportName": "Registered Capacity",
            "Group": [
                "Registration"
            ],
            "Dynamic": false,
            "ResourceName": "PUB_MnlyRegisteredCapacity_201909010900.xml",
            "DateRetention": "2019-09-01"
        },
        {
            "_id": "5d6b8f9d9620d9252f6986b1",
            "Date": "2019-10-01",
            "PublishTime": "2019-09-01T09:00:02",
            "DPuG_ID": "BM-011",
            "ReportName": "Monthly Load Forecast and Assumptions",
            "Group": [
                "Forecast Data"
            ],
            "Dynamic": false,
            "ResourceName": "PUB_MonthlyLoadFcst_201909010900.xml",
            "DateRetention": "2019-10-01"
        },
        {
            "_id": "5d8e20769620d974ff3cb63d",
            "PublishTime": "2019-09-27T14:16:29+00:00",
            "DPuG_ID": "BM-085",
            "ReportName": "Settlement Calendar",
            "Group": [
                "Settlement Data"
            ],
            "Dynamic": true,
            "ResourceName": "SC_PT_ALL_20180930_20190927_ALL_REPT_20190927T141629.XML",
            "DateRetention": {
                "$undefined": true
            }
        },
        {
            "_id": "5d91e3b89620d9605a67331b",
            "PublishTime": "2019-09-30T10:54:33+00:00",
            "DPuG_ID": "BM-085",
            "ReportName": "Settlement Calendar",
            "Group": [
                "Settlement Data"
            ],
            "Dynamic": true,
            "ResourceName": "SC_PT_ALL_20181001_20190930_ALL_REPT_20190930T105433.XML",
            "DateRetention": {
                "$undefined": true
            }
        },
        {
            "_id": "5d931c9f9620d96fcc49eb29",
            "Date": "2019-10-01",
            "PublishTime": "2019-10-01T09:00:01",
            "DPuG_ID": "BM-003",
            "ReportName": "Registered Capacity",
            "Group": [
                "Registration"
            ],
            "Dynamic": false,
            "ResourceName": "PUB_MnlyRegisteredCapacity_201910010900.xml",
            "DateRetention": "2019-10-01"
        },
        {
            "_id": "5d931c9f9620d96fcc49eb2a",
            "Date": "2019-11-01",
            "PublishTime": "2019-10-01T09:00:01",
            "DPuG_ID": "BM-011",
            "ReportName": "Monthly Load Forecast and Assumptions",
            "Group": [
                "Forecast Data"
            ],
            "Dynamic": false,
            "ResourceName": "PUB_MonthlyLoadFcst_201910010900.xml",
            "DateRetention": "2019-11-01"
        },
        {
            "_id": "5d95b8999620d90974355613",
            "PublishTime": "2019-10-03T08:23:57+00:00",
            "DPuG_ID": "BM-085",
            "ReportName": "Settlement Calendar",
            "Group": [
                "Settlement Data"
            ],
            "Dynamic": true,
            "ResourceName": "SC_PT_ALL_20191001_20191003_ALL_REPT_20191003T082357.XML",
            "DateRetention": {
                "$undefined": true
            }
        },
        {
            "_id": "5d9dcf489620d91fa5759778",
            "PublishTime": "2019-10-09T11:48:43+00:00",
            "DPuG_ID": "BM-085",
            "ReportName": "Settlement Calendar",
            "Group": [
                "Settlement Data"
            ],
            "Dynamic": true,
            "ResourceName": "SC_PT_ALL_20191009_20191009_ALL_REPT_20191009T114843.XML",
            "DateRetention": {
                "$undefined": true
            }
        }
    ]
}